0;All peers and transits
500;All transits
503;Level3 AS3356
509;Telia AS1299
510;NTT Verio AS2914
2;Sprint AS1239
3;Savvis AS3561
4;C&W AS1273
5;Verizon EMEA AS702
14;DTAG AS3320
16;Opentransit AS5511
18;GlobeInternet Tata AS6453
23;Tinet AS3257
27;Telia AS1299
45;Telecom Italia AS6762
73;Eurorings AS286
169;Cogent AS174
177;Telefonica Int. AS12956 and Germany AS6805
178;XO AS2828
190;Comcast AS7922
191;Highwinds AS12989
300;All other peers
