100;Standard Local PreferenceSet Local Preference to 100 (default).
50;Low Local Preference Set Local Preference to 50.
150;High Local Preference Set Local Preference to 150. Requires authorization from AS3320 backbone engineering.
