286:10105;AS209 / Qwest
286:10110;AS3320 / DTAG
286:10115;AS702 / UUNET
286:10130;AS2686 / AT&T Global
286:10135;AS3292 / TDC
286:10140;AS3300 / Infonet
286:10145;AS3549 / Global Crossing
286:10150;AS3561 / C&W-SAVVIS
286:10155;AS5400 / BT
286:10160;AS5510 / Opentransit
286:10165;AS6461 / MFN
286:10170;AS6830 / UPC
286:10180;AS8220 / Colt
286:10185;AS6453 / TATA
286:10190;AS3356 / Level3
286:10195;AS12956 / Telefonica
286:10200;AS3291 / PSI-VIA
286:10205;AS1239 / Sprint
286:10210;AS19151 / WV Fiber
286:10215;AS6327 / SHAW
286:10220;AS1299 / Telia
286:10225;AS2914 / Verio
286:10230;AS1668 / AOL
286:10235;AS174 / Cogent
286:10240;AS15290 / Allstream
286:10245;AS3257 / Tiscali
286:10250;AS2828 / XO
286:10255;AS1272 / C&W-Vodafone
286:10260;AS7018 / AT&T
286:10265;AS6453 / TATA (dup)
286:10270;AS701 / Verizon
286:10275;AS15169 / Google
286:10280;AS4837 / China Network (CNC)
286:10285;AS4134 / China Telecom 
