230;Route learnt in Accra
495;Route learnt in Hamburg
310;Route learnt in Amsterdam
13;Route learnt in Ashburn
300;Route learnt in Athens
11;Route learnt in Atlanta
320;Route learnt in Bruxelles
400;Route learnt in Bucarest
540;Route learnt in Buenos Aires
393;Route learnt in Catania
19;Route learnt in Chicago
12;Route learnt in Dallas
255;Route learnt in Dar Es Salaam
250;Route learnt in Djibouti
558;Route learnt in Fortaleza
490;Route learnt in Frankfurt
850;Route learnt in Hong Kong
900;Route learnt in Istanbul
510;Route learnt in Lima
440;Route learnt in London
14;Route learnt in Los Angeles
340;Route learnt in Madrid
337;Route learnt in Marseille
15;Route learnt in Miami
390;Route learnt in Milano
910;Route learnt in Mumbai
968;Route learnt in Muscat
10;Route learnt in Newark/NYC
395;Route learnt in Palermo
18;Route learnt in Palo Alto
507;Route learnt in Panama
330;Route learnt in Paris
420;Route learnt in Prague
555;Route learnt in Rio De Janeiro
398;Route learnt in Roma
550;Route learnt in Sao Paulo
560;Route learnt in Santiago
359;Route learnt in Sofia
650;Route learnt in Singapore
460;Route learnt in Stockolm
430;Route learnt in Wien
410;Route learnt in Zurich
