1;Unites States
7;Russia
31;Netherlands
32;Belgium
33;France
34;Spain
39;Italy
41;Switzerland
43;Austria
44;United Kingdom
45;Denmark
46;Sweden
47;Norway
48;Poland
49;Germany
65;Singapore
86;China
90;Turkey
351;Portugal
352;Luxemburg
353;Ireland
358;Finland
420;Czech Republic
421;Slovakia
852;Hong Kong 
