209:0;Blackhole community for null routing. May need to be arranged prior to using.
209:999;used for announcing routes greater than /24 (will not be passed to peers). May need to be arranged first
209:888;Do not announce to peers / peer learned route
209:209;Qwest route/Qwest Customer
