0;announce to customers but not to EU peers
1;prepend once  at peerings to all EU peers
2;prepend twice at peerings to all EU peers
3;prepend 3x    at peerings to all EU peers
4;prepend 4x    at peerings to all EU peers
