2914:666;blackhole
2914:429;do not advertise to any peer
2914:439;do not advertise to any peer outside region
2914:410;NTT Communications and customer routes
2914:420;Peer routes
2914:661;only blackhole inside the region the announcement originated
2914:663;only blackhole inside the country the announcement originated
2914:660;only blackhole outside the region the announcement originated
2914:664;only blackhole outside the country the announcement originated
