01;AS701 UUnet/MCI/Verizon
02;AS6453 Teleglobe
03;AS1239 Sprint
05;AS3320 Deutsche Telekom
06;AS5511 France Telecom
07;AS1299 TeliaSonera
08;AS12956 Telefonica
09;AS3356 Level3
10;AS702 UUnet Europe
11;AS7132 AT&T (SBC)
12;AS174 Cogent
13;AS7018 AT&T
14;AS1257 Tele2
15;AS3549 Global Crossing
16;AS3257 Tiscali
17;AS1273 Cable&Wireless
18;AS2914 NTT
19;AS1668 ATDN
20;AS209 Qwest
21;AS6461 Abovenet
22;AS4134 China Telecom
23;AS4837 China Netcom
24;AS7922 Comcast
25;AS3491 PCCW
26;AS5400 BT
27;AS2856 BT (domestic)
