0;UK
1;Germany
2;France
3;Netherlands
4;Belgium
5;Italy
6;Switzerland
7;Sweden
8;Spain
9;Ireland
10;Denmark
11;Austria
12;Czech Republic
13;Poland
14;Bulgaria
15;Romania
16;Hungary
17;Norway
18;Slovakia
19;Finland
20;Luxembourg
21;Croatia
22;Slovenia
23;Estonia
24;Serbia
50;Saudi Arabia
51;Djibouti
52;South Africa
53;United Arab Emirates
54;Russia
75;USA
76;Canada
