7;70 Lower (less preferred) than all other routes on network, including all public & private peer routes.
8;80 Same as public & private peer routes.
9;90
10;100 Explicitly set customer BGP announcements to 100.
11;110 Higher (more preferred) than all default customer BGP and static routes.
12;120 Highest (most preferred) local-pref that a customer can specify.
