0;AS286 originated "allocation"
2;AS286 originated "allocation" announced only in Africa
3;AS286 originated "allocation" announced only in Europe
4;AS286 originated "allocation" announced only in North America
5;AS286 originated "allocation" announced only in South America
6;AS286 originated "allocation" announced only in Australia
9;AS286 originated "allocation" announced only in Asia 
